{
  "extends": [
    "config:base", 
    "docker:pinDigests" 
  ],
  "packageRules": [
    {
      "datasources": ["docker"],
      "updateType": ["major"],
      "enabled": true
    }
  ],
  "docker": {
    "pinDigests": true
  }
}

